# Exported from ProBuilder
# http://www.procore3d.com/probuilder
# 5/10/2018 12:39:37 PM

mtllib ./Creeper.mtl
o Creeper

g Head
v -0.5 0 0.5
v 0.5 0 0.5
v -0.5 1 0.5
v 0.5 1 0.5
v 0.5 0 0.5
v 0.5 0 -0.5
v 0.5 1 0.5
v 0.5 1 -0.5
v 0.5 0 -0.5
v -0.5 0 -0.5
v 0.5 1 -0.5
v -0.5 1 -0.5
v -0.5 0 -0.5
v -0.5 0 0.5
v -0.5 1 -0.5
v -0.5 1 0.5
v -0.5 1 0.5
v 0.5 1 0.5
v -0.5 1 -0.5
v 0.5 1 -0.5
v -0.5 0 -0.5
v 0.5 0 -0.5
v -0.5 0 0.5
v 0.5 0 0.5

vn 0 0 1
vn 0 0 1
vn 0 0 1
vn 0 0 1
vn 1 0 0
vn 1 0 0
vn 1 0 0
vn 1 0 0
vn 0 0 -1
vn 0 0 -1
vn 0 0 -1
vn 0 0 -1
vn -1 0 0
vn -1 0 0
vn -1 0 0
vn -1 0 0
vn 0 1 0
vn 0 1 0
vn 0 1 0
vn 0 1 0
vn 0 -1 0
vn 0 -1 0
vn 0 -1 0
vn 0 -1 0

vt 0.2341286 0.7499995
vt 0.1097764 0.7499995
vt 0.2341286 0.8756399
vt 0.1097764 0.8756399
vt 0.110034 0.7496887
vt -0.0008803335 0.7496887
vt 0.1100341 0.8752625
vt -0.0008803196 0.8752625
vt 0.4845228 0.7501253
vt 0.3604004 0.7501253
vt 0.4845228 0.8746126
vt 0.3604004 0.8746126
vt 0.3599561 0.7503852
vt 0.2345102 0.7503851
vt 0.3599561 0.8753383
vt 0.2345101 0.8753382
vt 0.2348662 1.000156
vt 0.3591475 1.000156
vt 0.2348662 0.8753414
vt 0.3591475 0.8753414
vt 0.234243 0.8758559
vt 0.1098923 0.8758559
vt 0.234243 0.9995002
vt 0.1098923 0.9995002

g Head
usemtl CreeperMat
f 1/1/1 2/2/2 4/4/4 3/3/3
f 5/5/5 6/6/6 8/8/8 7/7/7
f 9/9/9 10/10/10 12/12/12 11/11/11
f 13/13/13 14/14/14 16/16/16 15/15/15
f 17/17/17 18/18/18 20/20/20 19/19/19
f 21/21/21 22/22/22 24/24/24 23/23/23

g Body
v -0.5 -1 0.25
v 0.5 -1 0.25
v -0.5 1 0.25
v 0.5 1 0.25
v 0.5 -1 0.25
v 0.5 -1 -0.25
v 0.5 1 0.25
v 0.5 1 -0.25
v 0.5 -1 -0.25
v -0.5 -1 -0.25
v 0.5 1 -0.25
v -0.5 1 -0.25
v -0.5 -1 -0.25
v -0.5 -1 0.25
v -0.5 1 -0.25
v -0.5 1 0.25
v -0.5 1 0.25
v 0.5 1 0.25
v -0.5 1 -0.25
v 0.5 1 -0.25
v -0.5 -1 -0.25
v 0.5 -1 -0.25
v -0.5 -1 0.25
v 0.5 -1 0.25

vn 0 0 1
vn 0 0 1
vn 0 0 1
vn 0 0 1
vn 1 0 0
vn 1 0 0
vn 1 0 0
vn 1 0 0
vn 0 0 -1
vn 0 0 -1
vn 0 0 -1
vn 0 0 -1
vn -1 0 0
vn -1 0 0
vn -1 0 0
vn -1 0 0
vn 0 1 0
vn 0 1 0
vn 0 1 0
vn 0 1 0
vn 0 -1 0
vn 0 -1 0
vn 0 -1 0
vn 0 -1 0

vt 0.4840706 0.5003698
vt 0.3592738 0.5003698
vt 0.4840706 0.7498882
vt 0.3592738 0.7498882
vt 0.359392 0.5011025
vt 0.2968778 0.5011032
vt 0.359392 0.7495381
vt 0.2968778 0.7495388
vt 0.4844 0.500538
vt 0.3595954 0.5005381
vt 0.4844 0.7504245
vt 0.3595954 0.7504246
vt 0.5464789 0.5002346
vt 0.4842988 0.5002347
vt 0.5464789 0.7492816
vt 0.4842988 0.7492817
vt 0.6087503 0.624481
vt 0.6087502 0.5006365
vt 0.5463094 0.624481
vt 0.5463092 0.5006365
vt 0.2348198 0.5006109
vt 0.2348198 0.6249862
vt 0.2970884 0.5006112
vt 0.2970884 0.6249865

g Body
usemtl CreeperMat
f 25/25/25 26/26/26 28/28/28 27/27/27
f 29/29/29 30/30/30 32/32/32 31/31/31
f 33/33/33 34/34/34 36/36/36 35/35/35
f 37/37/37 38/38/38 40/40/40 39/39/39
f 41/41/41 42/42/42 44/44/44 43/43/43
f 45/45/45 46/46/46 48/48/48 47/47/47

g FrontLeftFoot
v 0 -0.6999995 0.25
v 0.5 -0.6999995 0.25
v 0 -5.662441E-07 0.25
v 0.5 -5.662441E-07 0.25
v 0.5 -0.6999995 0.25
v 0.5 -0.6999995 -0.25
v 0.5 -5.662441E-07 0.25
v 0.5 -5.662441E-07 -0.25
v 0.5 -0.6999995 -0.25
v 0 -0.6999995 -0.25
v 0.5 -5.662441E-07 -0.25
v 0 -5.662441E-07 -0.25
v 0 -0.6999995 -0.25
v 0 -0.6999995 0.25
v 0 -5.662441E-07 -0.25
v 0 -5.662441E-07 0.25
v 0 -5.662441E-07 0.25
v 0.5 -5.662441E-07 0.25
v 0 -5.662441E-07 -0.25
v 0.5 -5.662441E-07 -0.25
v 0 -0.6999995 -0.25
v 0.5 -0.6999995 -0.25
v 0 -0.6999995 0.25
v 0.5 -0.6999995 0.25

vn 0 0 1
vn 0 0 1
vn 0 0 1
vn 0 0 1
vn 1 0 0
vn 1 0 0
vn 1 0 0
vn 1 0 0
vn 0 0 -1
vn 0 0 -1
vn 0 0 -1
vn 0 0 -1
vn -1 0 0
vn -1 0 0
vn -1 0 0
vn -1 0 0
vn 0 1 0
vn 0 1 0
vn 0 1 0
vn 0 1 0
vn 0 -1 0
vn 0 -1 0
vn 0 -1 0
vn 0 -1 0

vt 0.1092654 0.593579
vt 0.04693368 0.593579
vt 0.1092655 0.6873518
vt 0.04693372 0.6873518
vt 0.1091261 0.59376
vt 0.1716512 0.59376
vt 0.1091261 0.6871926
vt 0.1716512 0.6871926
vt 0.2340388 0.5942673
vt 0.171868 0.5942673
vt 0.2340388 0.6873553
vt 0.171868 0.6873553
vt 0.1717047 0.5939859
vt 0.1092657 0.5939859
vt 0.1717047 0.6872642
vt 0.1092657 0.6872642
vt 0.04693174 0.7499106
vt 0.1094317 0.7499106
vt 0.04693174 0.6874106
vt 0.1094317 0.6874106
vt 0.1717553 0.6877497
vt 0.1093951 0.6877497
vt 0.1717553 0.7499165
vt 0.1093951 0.7499165

g FrontLeftFoot
usemtl CreeperMat
f 49/49/49 50/50/50 52/52/52 51/51/51
f 53/53/53 54/54/54 56/56/56 55/55/55
f 57/57/57 58/58/58 60/60/60 59/59/59
f 61/61/61 62/62/62 64/64/64 63/63/63
f 65/65/65 66/66/66 68/68/68 67/67/67
f 69/69/69 70/70/70 72/72/72 71/71/71

g FrontRightFoot
v -0.5 -0.6999995 0.25
v 0 -0.6999995 0.25
v -0.5 -5.662441E-07 0.25
v 0 -5.662441E-07 0.25
v 0 -0.6999995 0.25
v 0 -0.6999995 -0.25
v 0 -5.662441E-07 0.25
v 0 -5.662441E-07 -0.25
v 0 -0.6999995 -0.25
v -0.5 -0.6999995 -0.25
v 0 -5.662441E-07 -0.25
v -0.5 -5.662441E-07 -0.25
v -0.5 -0.6999995 -0.25
v -0.5 -0.6999995 0.25
v -0.5 -5.662441E-07 -0.25
v -0.5 -5.662441E-07 0.25
v -0.5 -5.662441E-07 0.25
v 0 -5.662441E-07 0.25
v -0.5 -5.662441E-07 -0.25
v 0 -5.662441E-07 -0.25
v -0.5 -0.6999995 -0.25
v 0 -0.6999995 -0.25
v -0.5 -0.6999995 0.25
v 0 -0.6999995 0.25

vn 0 0 1
vn 0 0 1
vn 0 0 1
vn 0 0 1
vn 1 0 0
vn 1 0 0
vn 1 0 0
vn 1 0 0
vn 0 0 -1
vn 0 0 -1
vn 0 0 -1
vn 0 0 -1
vn -1 0 0
vn -1 0 0
vn -1 0 0
vn -1 0 0
vn 0 1 0
vn 0 1 0
vn 0 1 0
vn 0 1 0
vn 0 -1 0
vn 0 -1 0
vn 0 -1 0
vn 0 -1 0

vt 0.1092654 0.593579
vt 0.04693368 0.593579
vt 0.1092655 0.6873518
vt 0.04693372 0.6873518
vt 0.1091261 0.59376
vt 0.1716512 0.59376
vt 0.1091261 0.6871926
vt 0.1716512 0.6871926
vt 0.2340388 0.5942673
vt 0.171868 0.5942673
vt 0.2340388 0.6873553
vt 0.171868 0.6873553
vt 0.1717047 0.5939859
vt 0.1092657 0.5939859
vt 0.1717047 0.6872642
vt 0.1092657 0.6872642
vt 0.1094317 0.6874106
vt 0.04693175 0.6874106
vt 0.1094317 0.7499106
vt 0.04693175 0.7499106
vt 0.1717553 0.6877497
vt 0.1093951 0.6877497
vt 0.1717553 0.7499165
vt 0.1093951 0.7499165

g FrontRightFoot
usemtl CreeperMat
f 73/73/73 74/74/74 76/76/76 75/75/75
f 77/77/77 78/78/78 80/80/80 79/79/79
f 81/81/81 82/82/82 84/84/84 83/83/83
f 85/85/85 86/86/86 88/88/88 87/87/87
f 89/89/89 90/90/90 92/92/92 91/91/91
f 93/93/93 94/94/94 96/96/96 95/95/95

g BackLeftFoot
v 0 -0.6999994 0.25
v 0.5 -0.6999994 0.25
v 0 -5.960464E-07 0.25
v 0.5 -5.960464E-07 0.25
v 0.5 -0.6999994 0.25
v 0.5 -0.6999994 -0.25
v 0.5 -5.960464E-07 0.25
v 0.5 -5.960464E-07 -0.25
v 0.5 -0.6999994 -0.25
v 0 -0.6999994 -0.25
v 0.5 -5.960464E-07 -0.25
v 0 -5.960464E-07 -0.25
v 0 -0.6999994 -0.25
v 0 -0.6999994 0.25
v 0 -5.960464E-07 -0.25
v 0 -5.960464E-07 0.25
v 0 -5.960464E-07 0.25
v 0.5 -5.960464E-07 0.25
v 0 -5.960464E-07 -0.25
v 0.5 -5.960464E-07 -0.25
v 0 -0.6999994 -0.25
v 0.5 -0.6999994 -0.25
v 0 -0.6999994 0.25
v 0.5 -0.6999994 0.25

vn 0 0 1
vn 0 0 1
vn 0 0 1
vn 0 0 1
vn 1 0 0
vn 1 0 0
vn 1 0 0
vn 1 0 0
vn 0 0 -1
vn 0 0 -1
vn 0 0 -1
vn 0 0 -1
vn -1 0 0
vn -1 0 0
vn -1 0 0
vn -1 0 0
vn 0 1 0
vn 0 1 0
vn 0 1 0
vn 0 1 0
vn 0 -1 0
vn 0 -1 0
vn 0 -1 0
vn 0 -1 0

vt 0.1092654 0.593579
vt 0.04693368 0.593579
vt 0.1092655 0.6873518
vt 0.04693371 0.6873518
vt 0.1091261 0.59376
vt 0.1716512 0.59376
vt 0.1091261 0.6871926
vt 0.1716512 0.6871926
vt 0.2340388 0.6873553
vt 0.171868 0.6873553
vt 0.2340388 0.5942673
vt 0.171868 0.5942673
vt 0.1717047 0.5939859
vt 0.1092657 0.5939859
vt 0.1717047 0.6872642
vt 0.1092657 0.6872642
vt 0.04693174 0.6874106
vt 0.1094317 0.6874106
vt 0.04693174 0.7499106
vt 0.1094317 0.7499106
vt 0.1717553 0.6877497
vt 0.1093951 0.6877497
vt 0.1717553 0.7499165
vt 0.1093951 0.7499165

g BackLeftFoot
usemtl CreeperMat
f 97/97/97 98/98/98 100/100/100 99/99/99
f 101/101/101 102/102/102 104/104/104 103/103/103
f 105/105/105 106/106/106 108/108/108 107/107/107
f 109/109/109 110/110/110 112/112/112 111/111/111
f 113/113/113 114/114/114 116/116/116 115/115/115
f 117/117/117 118/118/118 120/120/120 119/119/119

g BackRightFood
v -0.5 -0.6999995 0.25
v 0 -0.6999995 0.25
v -0.5 -5.662441E-07 0.25
v 0 -5.662441E-07 0.25
v 0 -0.6999995 0.25
v 0 -0.6999995 -0.25
v 0 -5.662441E-07 0.25
v 0 -5.662441E-07 -0.25
v 0 -0.6999995 -0.25
v -0.5 -0.6999995 -0.25
v 0 -5.662441E-07 -0.25
v -0.5 -5.662441E-07 -0.25
v -0.5 -0.6999995 -0.25
v -0.5 -0.6999995 0.25
v -0.5 -5.662441E-07 -0.25
v -0.5 -5.662441E-07 0.25
v -0.5 -5.662441E-07 0.25
v 0 -5.662441E-07 0.25
v -0.5 -5.662441E-07 -0.25
v 0 -5.662441E-07 -0.25
v -0.5 -0.6999995 -0.25
v 0 -0.6999995 -0.25
v -0.5 -0.6999995 0.25
v 0 -0.6999995 0.25

vn 0 0 1
vn 0 0 1
vn 0 0 1
vn 0 0 1
vn 1 0 0
vn 1 0 0
vn 1 0 0
vn 1 0 0
vn 0 0 -1
vn 0 0 -1
vn 0 0 -1
vn 0 0 -1
vn -1 0 0
vn -1 0 0
vn -1 0 0
vn -1 0 0
vn 0 1 0
vn 0 1 0
vn 0 1 0
vn 0 1 0
vn 0 -1 0
vn 0 -1 0
vn 0 -1 0
vn 0 -1 0

vt 0.1092654 0.593579
vt 0.04693368 0.593579
vt 0.1092655 0.6873518
vt 0.04693372 0.6873518
vt 0.1091261 0.59376
vt 0.1716512 0.59376
vt 0.1091261 0.6871926
vt 0.1716512 0.6871926
vt 0.2340388 0.5942673
vt 0.171868 0.5942673
vt 0.2340388 0.6873553
vt 0.171868 0.6873553
vt 0.1717047 0.5939859
vt 0.1092657 0.5939859
vt 0.1717047 0.6872642
vt 0.1092657 0.6872642
vt 0.1094317 0.7499106
vt 0.04693175 0.7499106
vt 0.1094317 0.6874106
vt 0.04693175 0.6874106
vt 0.1717553 0.6877497
vt 0.1093951 0.6877497
vt 0.1717553 0.7499165
vt 0.1093951 0.7499165

g BackRightFood
usemtl CreeperMat
f 121/121/121 122/122/122 124/124/124 123/123/123
f 125/125/125 126/126/126 128/128/128 127/127/127
f 129/129/129 130/130/130 132/132/132 131/131/131
f 133/133/133 134/134/134 136/136/136 135/135/135
f 137/137/137 138/138/138 140/140/140 139/139/139
f 141/141/141 142/142/142 144/144/144 143/143/143

